0	3243334.13	 1.55
1	3247001.86	 1.55
2	3238792.43	 1.54
3	3244633.23	 1.55
4	3249089.32	 1.55
5	3246208.99	 1.55
6	3244184.06	 1.55
7	3240318.40	 1.55
8	3242999.04	 1.55
9	3241139.55	 1.55
10	3239600.82	 1.54
11	3241130.38	 1.55
12	3240723.99	 1.55
13	3239912.29	 1.54
14	3239988.19	 1.54
15	3239418.61	 1.54
16	3239628.55	 1.54
17	3239260.36	 1.54
18	3239342.22	 1.54
19	3239916.51	 1.54
20	3239522.30	 1.54
21	3239694.02	 1.54
22	3240578.23	 1.55
23	3239305.71	 1.54
24	3239941.43	 1.54
25	3244151.79	 1.55
26	3246095.03	 1.55
27	3241087.06	 1.55
28	3243525.88	 1.55
29	3240861.99	 1.55
30	3238973.95	 1.54
31	3239300.69	 1.54
32	3238988.09	 1.54
33	3239140.35	 1.54
34	3240775.23	 1.55
35	3251437.47	 1.55
36	3239269.01	 1.54
37	3238904.79	 1.54
38	3238808.16	 1.54
39	3239630.38	 1.54
40	3238973.54	 1.54
41	3239251.05	 1.54
42	3238817.62	 1.54
43	3238947.71	 1.54
44	3239459.04	 1.54
45	3238909.55	 1.54
46	3239315.28	 1.54
47	3238898.33	 1.54
48	3238871.32	 1.54
49	3239575.42	 1.54
50	3238881.57	 1.54
51	3239134.56	 1.54
52	3238821.63	 1.54
53	3238905.53	 1.54
54	3239513.03	 1.54
55	3239031.28	 1.54
56	3239292.29	 1.54
57	3238836.75	 1.54
58	3238851.15	 1.54
59	3239591.42	 1.54
60	3238951.77	 1.54
61	3239177.05	 1.54
62	3241496.75	 1.55
63	3239099.62	 1.54
64	3239539.54	 1.54
