651820
650880
41076
617042
412611
338649
51525
786122
779113
478377
641563
144090
443570
196884
689055
943375
577600
573469
710088
378864
409001
132739
306977
282758
90029
81213
929452
671548
209523
944489
571648
763231
732773
445039
149762
271920
119935
752280
653718
919184
0
